%% Do not edit, this file has been generated
%% automatically by "livret seconde".tex via gmp.sty

verbatimtex
%&latex
\documentclass[]{article}

\usepackage []{ProfCollege}
\usepackage [utf8]{inputenc}
\usepackage [T1]{fontenc}
\usepackage []{fourier}
\usepackage [french]{babel}
\usepackage []{pifont}

\begin{document}
etex;
prologues:=3;

prologues:=3; input PfCLaTeX; input PfCSvgnames; input PfCConstantes; input PfCGeometrie; input PfCAfficheur;
boolean Incline; Incline=false;
outputtemplate:= "%j.mps";
beginfig(10);
 pair A[],B[];A0=u*(1,1); B0-A0=u*(3,0); A1=rotation(B0,A0,60/2); A2=rotation(B0,A0,-60/2); B1-A1=B0-A0; A3=rotation(B1,A1,60/3); A4=rotation(B1,A1,-60/3); B2-A2=B0-A0; A5=rotation(B2,A2,60/3); A6=rotation(B2,A2,-60/3); draw segment(A4,A1); draw segment(A5,A2); draw chemin(A3,A1,A0,A2,A6); for k=1 upto 6: fill cercles(A[k],0.75*cm) withcolor white; endfor; n:=1;k:=1;l:=1;vardef toto(text t)= for p_=t: if (n mod 2)=1: if p_<>"": label(LATEX(p_),A[k]); fi; k:=k+1; else: if (l mod 2)=1: if p_<>"": if Incline: draw appelation(A[(l-1) div 2],A[l],4mm,LATEX(p_)); else: label.ulft(LATEX(p_),iso(A[(l-1) div 2],A[l])); fi; fi; else: if p_<>"": if Incline: draw appelation(A[(l-1) div 2],A[l],-4mm,LATEX(p_)); else: label.llft(LATEX(p_),iso(A[(l-1) div 2],A[l])); fi; fi; fi; l:=l+1; fi; n:=n+1; endfor; enddef; toto("Rouge","\noexpand \footnotesize $\dfrac 13$","Vert","\noexpand \footnotesize $\dfrac 23$","Bleu ","\noexpand \footnotesize \num {0.15}","Jaune","\noexpand \footnotesize \num {0.85}","Bleu","\noexpand \footnotesize \num {0.1}","Jaune","\noexpand \footnotesize \num {0.9}",); 
endfig;
end.
verbatimtex
\end{document}
etex
